0,1,0,0,0,0,0,0,0,0,1,2,3,4,3,3,1,2,0,1,2,3,0
15,15,15,15,15,15,15,15,15,15,15,15,15,15,0,2,0,0,15,15,15,15,15
0,0,1,2,3,4,5,6,7,8,8,8,8,8,8,8,8,8,9,9,9,9,10
1,0,1.28,0.5,0.57,0.76,0.76,1,1,1,0,0,0,0,0,0,0,0,1,0,0,0,0.78750607
235.2170261,980.4709709,14.93162502,11.51985098,47.80410962,99.4314478,2060.942736,304.0355986,42.20768494,937.7101096,937.7101096,937.7101096,937.7101096,937.7101096,937.7101096,937.7101096,937.7101096,937.7101096,294.2798295,294.2798295,294.2798295,294.2798295,41.55758353
25,25,25,25,25,4,29,25,25,25,25,25,25,25,25,25,25,25,25,25,25,25,25
0,1,1,0,0,0,0,0,1,0,0,25,25,25,25,25,25,25,25,25,25,25,25
0,1,1,3,1,2,0,0,1,2,1,3,25,25,25,25,25,25,25,25,25,25,25
